{
    "logoUrl": "",
    "menuItems": [
        {
            "name": "Ecom",
            "headerText": "House of ECOM is a clan of brillient professionals with deep domain knowledge of ECommerce combined with experience of designing and developing state of the art tech products and managing large scale business processing services.",
            "imageUrl": "",
            "ecomPackages": [
                {
                    "name": "Megnoto",
                    "imageUrl": ""
                },
                {
                    "name": "Shopify",
                    "imageUrl": ""
                },
                {
                    "name": "Drupal",
                    "imageUrl": ""
                },
                {
                    "name": "SAP Hybris",
                    "imageUrl": ""
                }
            ],
            "offers": {
                "header": "Ecom Offers",
                "subHeader": "There are a number of features that make RandomText a little different from other Lorem Ipsum dummy text generators you may find around the web",
                "items": [
                    {
                        "imageUrl": "",
                        "header": "Design & Development",
                        "content": "Ut bibendum sagittis nibh, eget finibus sapien ornare sed. Mauris eget elit pharetra neque dictum bibendum at vestibulum sapien. Proin sodales, ex ac ornare hendrerit, nulla nisl semper leo"
                    },
                    {
                        "imageUrl": "",
                        "header": "Devops & CI- CD related Service",
                        "content": "Ut bibendum sagittis nibh, eget finibus sapien ornare sed. Mauris eget elit pharetra neque dictum bibendum at vestibulum sapien. Proin sodales, ex ac ornare hendrerit, nulla nisl semper leo"
                    },
                    {
                        "imageUrl": "",
                        "header": "Tech & Shared Services ",
                        "content": "Ut bibendum sagittis nibh, eget finibus sapien ornare sed. Mauris eget elit pharetra neque dictum bibendum at vestibulum sapien. Proin sodales, ex ac ornare hendrerit, nulla nisl semper leo"
                    }
                ]
            }
        },
        {
            "name": "Counsiling",
            "headerText": "House of ECOM is a clan of brillient professionals with deep domain knowledge of ECommerce combined with experience of designing and developing state of the art tech products and managing large scale business processing services.",
            "imageUrl": ""
        },
        {
            "name": "Bussiness Process as a Service",
            "headerText": "House of ECOM is a clan of brillient professionals with deep domain knowledge of ECommerce combined with experience of designing and developing state of the art tech products and managing large scale business processing services.",
            "imageUrl": ""
        }
    ],
    "ourOfferings": {
        "headerText": "Our Offerings",
        "subHeader": " ",
        "items": [
            {
                "headerText": "",
                "number": "",
                "color": "",
                "subHeader": ""
            }
        ]
    },
    "techTrends": {
        "headerText": "Tech Trends",
        "subHeader": " ",
        "items": [
            {
                "headerText": "",
                "subHeader": "",
                "imageUrl": ""
            }
        ]
    },
    "ourClients": {
        "headerText": "Our Clients",
        "subHeader": " ",
        "items": [
            {
                "headerText": "",
                "imageUrl": ""
            }
        ]
    },
    "feedback": {
        "headerText": "People love House of Ecom. See some of the stories.",
        "subHeader": " ",
        "items": [
            {
                "name": "",
                "imageUrl": "",
                "comment": ""
            }
        ]
    }
}
